[
    { "id": 1, "name": "All Categories", "hasSubCategory": true, "parentId": 0 },

    { "id": 2, "name": "produces", "hasSubCategory": false, "parentId":1 },
    { "id": 3, "name": "Bakery & Desserts", "hasSubCategory": false, "parentId":1 },
    { "id": 4, "name": "Meat & Fish", "hasSubCategory": false, "parentId": 1 },
    { "id": 5, "name": "Breakfast", "hasSubCategory": false, "parentId": 1 },
    { "id": 6, "name": "Coffee, Tea & Sweeteners", "hasSubCategory": false, "parentId": 1 },
    { "id": 7, "name": "Snacks, Candy & Nuts", "hasSubCategory": false, "parentId": 1 },
    { "id": 8, "name": "Beverages", "hasSubCategory": false, "parentId":1 },
    { "id": 9, "name": "Grains, Pasta & Rice", "hasSubCategory": false, "parentId": 1 },
    { "id": 10, "name": "Spices & Seasonings", "hasSubCategory": false, "parentId": 1 },
    { "id": 11, "name": "Dairy & Eggs", "hasSubCategory": false, "parentId": 1 },
    { "id": 12, "name": "Paper Products & Food Storage", "hasSubCategory": false, "parentId": 1 },
    { "id": 13, "name": "Babies", "hasSubCategory": false, "parentId":1 },
    { "id": 14, "name": "Personal Care & Hygiene", "hasSubCategory": false, "parentId": 1 },
    { "id": 15, "name": "Cleaning & Laundry", "hasSubCategory": false, "parentId": 1 },
    { "id": 16, "name": "Electronics & Utensils", "hasSubCategory": false, "parentId": 1 }

]