[    
    { 
        "id": 1,
        "name": "Chocolates",
        "images": [
            {
                "small": "assets/images/products/keyboard/1-small.png",
                "medium": "assets/images/products/keyboard/1-medium.png",
                "big": "assets/images/products/keyboard/1-big.png"
            },
            {
                "small": "assets/images/products/keyboard/2-small.png",
                "medium": "assets/images/products/keyboard/2-medium.png",
                "big": "assets/images/products/keyboard/2-big.png"
            },
            {
                "small": "assets/images/products/keyboard/3-small.png",
                "medium": "assets/images/products/keyboard/3-medium.png",
                "big": "assets/images/products/keyboard/3-big.png"
            }
        ],
        "oldPrice": null,
        "newPrice": 175,
        "discount": null,
        "ratingsCount": 4,
        "ratingsValue": 350,
        "description": "Lorem ipsum dolor sit amet, consectetur adipiscing elit. Ut congue eleifend nulla vel rutrum. Donec tempus metus non erat vehicula, vel hendrerit sem interdum. Vestibulum ante ipsum primis in faucibus orci luctus et ultrices posuere cubilia Curae.",
        "availibilityCount": 5,
        "color": ["#5C6BC0","#66BB6A","#90A4AE"],
        "size": ["S","M","L", "XL"],
        "weight": 150,
        "categoryId": 100
    },
    { 
        "id": 2,
        "name": "Bread",
        "images": [
            {
                "small": "assets/images/products/pc/1-small.jpg",
                "medium": "assets/images/products/pc/1-medium.jpg",
                "big": "assets/images/products/pc/1-big.jpg"
            },
            {
                "small": "assets/images/products/pc/2-small.jpg",
                "medium": "assets/images/products/pc/2-medium.jpg",
                "big": "assets/images/products/pc/2-big.jpg"
            },
            {
                "small": "assets/images/products/pc/3-small.jpg",
                "medium": "assets/images/products/pc/3-medium.jpg",
                "big": "assets/images/products/pc/3-big.jpg"
            },
            {
                "small": "assets/images/products/pc/4-small.jpg",
                "medium": "assets/images/products/pc/4-medium.jpg",
                "big": "assets/images/products/pc/4-big.jpg"
            },
            {
                "small": "assets/images/products/pc/5-small.jpg",
                "medium": "assets/images/products/pc/5-medium.jpg",
                "big": "assets/images/products/pc/5-big.jpg"
            },
            {
                "small": "assets/images/products/pc/6-small.jpg",
                "medium": "assets/images/products/pc/6-medium.jpg",
                "big": "assets/images/products/pc/6-big.jpg"
            }
        ],
        "oldPrice": 2510,
        "newPrice": 2179.99,
        "discount": 15,
        "ratingsCount": 8,
        "ratingsValue": 800,
        "description": "Lorem ipsum dolor sit amet, consectetur adipiscing elit. Ut congue eleifend nulla vel rutrum. Donec tempus metus non erat vehicula, vel hendrerit sem interdum. Vestibulum ante ipsum primis in faucibus orci luctus et ultrices posuere cubilia Curae.",
        "availibilityCount": 3,
        "color": ["#1D1D1D","#DADADA","#597087"],
        "size": ["24''","28''","32''"],
        "weight": 9550,
        "categoryId": 100
    },    
    { 
        "id": 3,
        "name": "Bananas",
        "images": [
            {
                "small": "assets/images/products/headset/1-small.jpg",
                "medium": "assets/images/products/headset/1-medium.jpg",
                "big": "assets/images/products/headset/1-big.jpg"
            },
            {
                "small": "assets/images/products/headset/2-small.jpg",
                "medium": "assets/images/products/headset/2-medium.jpg",
                "big": "assets/images/products/headset/2-big.jpg"
            },
            {
                "small": "assets/images/products/headset/3-small.jpg",
                "medium": "assets/images/products/headset/3-medium.jpg",
                "big": "assets/images/products/headset/3-big.jpg"
            }
        ],
        "oldPrice": null,
        "newPrice": 200,
        "discount": null,
        "ratingsCount": 12,
        "ratingsValue": 1150,
        "description": "Lorem ipsum dolor sit amet, consectetur adipiscing elit. Ut congue eleifend nulla vel rutrum. Donec tempus metus non erat vehicula, vel hendrerit sem interdum. Vestibulum ante ipsum primis in faucibus orci luctus et ultrices posuere cubilia Curae.",
        "availibilityCount": 5,
        "color": ["#474543","#8B8B8B","#FFFFFF"],
        "size": ["14","22"],
        "weight": 150,
        "categoryId": 100
    },   
    { 
        "id": 4,
        "name": "Table Pack",
        "images": [
            {
                "small": "assets/images/products/probook/1-small.jpg",
                "medium": "assets/images/products/probook/1-medium.jpg",
                "big": "assets/images/products/probook/1-big.jpg"
            },
            {
                "small": "assets/images/products/probook/2-small.jpg",
                "medium": "assets/images/products/probook/2-medium.jpg",
                "big": "assets/images/products/probook/2-big.jpg"
            },
            {
                "small": "assets/images/products/probook/3-small.jpg",
                "medium": "assets/images/products/probook/3-medium.jpg",
                "big": "assets/images/products/probook/3-big.jpg"
            },
            {
                "small": "assets/images/products/probook/4-small.jpg",
                "medium": "assets/images/products/probook/4-medium.jpg",
                "big": "assets/images/products/probook/4-big.jpg"
            },
            {
                "small": "assets/images/products/probook/5-small.jpg",
                "medium": "assets/images/products/probook/5-medium.jpg",
                "big": "assets/images/products/probook/5-big.jpg"
            }
        ],
        "oldPrice": 1655,
        "newPrice": 1379.99,
        "discount": 20,
        "ratingsCount": 6,
        "ratingsValue": 500,
        "description": "Lorem ipsum dolor sit amet, consectetur adipiscing elit. Ut congue eleifend nulla vel rutrum. Donec tempus metus non erat vehicula, vel hendrerit sem interdum. Vestibulum ante ipsum primis in faucibus orci luctus et ultrices posuere cubilia Curae.",
        "availibilityCount": 2,
        "color": ["#4C4C4C","#B6B7B9"],
        "size": ["13.3''","15.4''","17''"],
        "weight": 2150,
        "categoryId": 100
    },
    { 
        "id": 5,
        "name": "Liquid Soap",
        "images": [
            {
                "small": "assets/images/products/phone/1-small.jpg",
                "medium": "assets/images/products/phone/1-medium.jpg",
                "big": "assets/images/products/phone/1-big.jpg"
            },
            {
                "small": "assets/images/products/phone/2-small.jpg",
                "medium": "assets/images/products/phone/2-medium.jpg",
                "big": "assets/images/products/phone/2-big.jpg"
            }
        ],
        "oldPrice": null,
        "newPrice": 476,
        "discount": null,
        "ratingsCount": 2,
        "ratingsValue": 200,
        "description": "Lorem ipsum dolor sit amet, consectetur adipiscing elit. Ut congue eleifend nulla vel rutrum. Donec tempus metus non erat vehicula, vel hendrerit sem interdum. Vestibulum ante ipsum primis in faucibus orci luctus et ultrices posuere cubilia Curae.",
        "availibilityCount": 0,
        "color": ["#1E1B00","#898E8B"],
        "size": null,
        "weight": 3250,
        "categoryId": 100
    },
    { 
        "id": 6,
        "name": "Whisky",
        "images": [
            {
                "small": "assets/images/products/printer/1-small.jpg",
                "medium": "assets/images/products/printer/1-medium.jpg",
                "big": "assets/images/products/printer/1-big.jpg"
            },
            {
                "small": "assets/images/products/printer/2-small.jpg",
                "medium": "assets/images/products/printer/2-medium.jpg",
                "big": "assets/images/products/printer/2-big.jpg"
            },
            {
                "small": "assets/images/products/printer/3-small.jpg",
                "medium": "assets/images/products/printer/3-medium.jpg",
                "big": "assets/images/products/printer/3-big.jpg"
            },
            {
                "small": "assets/images/products/printer/4-small.jpg",
                "medium": "assets/images/products/printer/4-medium.jpg",
                "big": "assets/images/products/printer/4-big.jpg"
            },
            {
                "small": "assets/images/products/printer/5-small.jpg",
                "medium": "assets/images/products/printer/5-medium.jpg",
                "big": "assets/images/products/printer/5-big.jpg"
            }
        ],
        "oldPrice": null,
        "newPrice": 15000,
        "discount": null,
        "ratingsCount": 4,
        "ratingsValue": 300,
        "description": "Lorem ipsum dolor sit amet, consectetur adipiscing elit. Ut congue eleifend nulla vel rutrum. Donec tempus metus non erat vehicula, vel hendrerit sem interdum. Vestibulum ante ipsum primis in faucibus orci luctus et ultrices posuere cubilia Curae.",
        "availibilityCount": 3,
        "color": ["#464646","#F3F3F3","#E6E6E6"],
        "size": null,
        "weight": 9750,
        "categoryId": 100
    }
]